<?xml version="1.0" encoding="UTF-8"?>
<!--

    jumbo-converters - Conversion templates used for format conversions by the jumbo-saxon project.
    Copyright © 2014 ioChem-BD (contact@iochem-bd.org)

    This program is free software: you can redistribute it and/or modify
    it under the terms of the GNU Affero General Public License as published by
    the Free Software Foundation, either version 3 of the License, or
    (at your option) any later version.

    This program is distributed in the hope that it will be useful,
    but WITHOUT ANY WARRANTY; without even the implied warranty of
    MERCHANTABILITY or FITNESS FOR A PARTICULAR PURPOSE.  See the
    GNU Affero General Public License for more details.

    You should have received a copy of the GNU Affero General Public License
    along with this program.  If not, see <http://www.gnu.org/licenses/>.

-->
<template id="quadrupole.moment" pattern="\s*Quadrupole Moment.*" endPattern="\s*This molecular quadrupole moment.*" endOffset="1" repeat="*">
	<comment class="example.input" id="quadrupole.moment">
 Quadrupole Moment (Buckingham convention)  ***  (a.u.)  ***
 =========================================
     quad-xx        quad-xy        quad-xz        quad-yy        quad-yz        quad-zz
     54.58446200     0.00000000     0.00000000    54.58446200     0.00000000  -109.16892399

 This molecular quadrupole moment is calculated with analytic integration	
	</comment>

    <record repeat="4"/>
    <record id="quadval">\s*{1_6F,cc:quadrupole}\s*</record>
    <record repeat="4"/>
    <transform process="pullup" xpath=".//cml:array"/>
    <transform process="delete" xpath=".//cml:list[count(*)=0]"/>
    <transform process="delete" xpath=".//cml:list[count(*)=0]"/>
    
	<comment class="example.output" id="quadrupole.moment">
		<module cmlx:lineCount="7" cmlx:templateRef="quadrupole.moment" xmlns="http://www.xml-cml.org/schema" xmlns:cmlx="http://www.xml-cml.org/schema/cmlx">
        	<array dataType="xsd:double" size="6" dictRef="cc:quadrupole">54.584462 0.0 0.0 54.584462 0.0 -109.16892399</array>
		</module>
	</comment>
    
</template>